{
  "left": [
    {
      "icon": "fa fa-mobile",
      "title": "OmniVista",
      "description": "FEATURE_DESC_LEFT_1",
      "photo": ["img/projects/omnivista.jpg", "img/projects/ThanksLetterFromAsad_OV"],
      "details": 9
    },
    {
      "icon": "fa fa-mobile",
      "title": "Blue Studio",
      "description": "FEATURE_DESC_LEFT_2",
      "details": 8
    }
  ],
  "image": "img/layout/project.jpeg",
  "right": [
    {
      "icon": "fa fa-envelope",
      "title": "OZ Sale Demo System",
      "description": "FEATURE_DESC_RIGHT_1",
      "photo": ["img/projects/OSD.png", "img/projects/OSD-mirror.png"],
      "details": 9
    },
    {
      "icon": "fa fa-google",
      "title": "e-Contract Management",
      "description": "FEATURE_DESC_RIGHT_2",
      "photo": ["img/projects/eContract.png", "img/projects/eContract-group.png", "img/projects/eContract-ekispert.png"],
      "details": 9
    }
  ]
}